{
  "name": "FactorioTas",
  "version": "0.7.0",
  "factorio_version": "0.16",
  "title": "FactorioTAS",
  "author": "Tristyn Stimpson",
  "contact": "",
  "homepage": "https://bitbucket.org/Tristyn/FactorioTas",
  "description": "Edit and replay tool-assisted speedruns in-game."
}